<?xml version="1.0" encoding="utf-8"?>
<!-- Generator: Adobe Illustrator 21.0.0, SVG Export Plug-In . SVG Version: 6.00 Build 0)  -->
<svg version="1.1" id="Layer_1" xmlns="http://www.w3.org/2000/svg" xmlns:xlink="http://www.w3.org/1999/xlink" x="0px" y="0px"
	 viewBox="0 0 19 19" style="enable-background:new 0 0 19 19;" xml:space="preserve">
<style type="text/css">
	.st0{fill:#E64A4A;}
	.st1{fill:#FFFFFF;}
</style>
<g>
	<circle class="st0" cx="9.5" cy="9.5" r="9.5"/>
</g>
<circle class="st1" cx="9.5" cy="9.5" r="6"/>
</svg>
